{
    "intelligence": 15,
    "security": 1,
    "love": 1,
    "support": 1,
    "hope": 6,
    "improvement": 1,
    "play": 4,
    "treasure": 1,
    "interest": 1,
    "like": 2,
    "giving": 1,
    "respect": 1,
    "create": 4,
    "creating": 4,
    "playing": 1,
    "please": 1,
    "inspire": 1,
    "inspired": 1,
    "creates": 1,
    "agreed": 1,
    "improve": 1,
    "save": 3,
    "treat": 1,
    "exciting": 18,
    "good": 1,
    "free": 1,
    "beautiful": 5,
    "easy": 1,
    "favorite": 1,
    "excited": 3,
    "optimistic": 1,
    "richer": 1,
    "funny": 1,
    "special": 1,
    "true": 4,
    "nice": 2,
    "safe": 1,
    "easier": 2,
    "interesting": 5,
    "perfect": 2,
    "best": 6,
    "great": 5,
    "romantic": 1,
    "hopeful": 1,
    "better": 6,
    "useful": 2,
    "risk": 3,
    "number": 6,
    "numbers": 1,
    "evil": 1,
    "suffering": 2,
    "hatred": 1,
    "introvert": 1,
    "pain": 2,
    "anxiety": 1,
    "depression": 3,
    "problem": 3,
    "trauma": 1,
    "avoid": 1,
    "pressure": 1,
    "cut": 2,
    "serious": 1,
    "crazy": 1,
    "difficult": 3,
    "careless": 1,
    "empty": 1,
    "nervous": 1,
    "bad": 1,
    "hard": 2,
    "body": 3,
    "example": 4,
    "ability": 8,
    "walk": 3,
    "time": 13,
    "possibility": 8,
    "videos": 2,
    "people": 15,
    "color": 2,
    "gain": 2,
    "function": 4,
    "technology": 5,
    "cortex": 1,
    "connect": 1,
    "question": 6,
    "dance": 1,
    "consciousness": 1,
    "mind": 2,
    "engineering": 5,
    "century": 2,
    "length": 1,
    "philosophy": 2,
    "lock": 1,
    "term": 8,
    "visions": 1,
    "future": 4,
    "reality": 8,
    "journey": 1,
    "breakthroughs": 2,
    "route": 1,
    "lot": 15,
    "things": 12,
    "challenges": 2,
    "head": 2,
    "thoughts": 5,
    "possibilities": 6,
    "ball": 1,
    "categories": 3,
    "structure": 1,
    "dogs": 1,
    "ways": 3,
    "change": 1,
    "world": 10,
    "human": 20,
    "echoes": 1,
    "memory": 5,
    "replay": 2,
    "river": 1,
    "memories": 6,
    "systems": 15,
    "environment": 6,
    "conversation": 2,
    "demons": 1,
    "ignition": 2,
    "quality": 2,
    "life": 6,
    "augmentation": 3,
    "scientist": 1,
    "engineer": 1,
    "bit": 2,
    "part": 2,
    "conditions": 1,
    "factory": 1,
    "workings": 1,
    "view": 1,
    "days": 1,
    "development": 1,
    "companies": 2,
    "base": 1,
    "mural": 1,
    "link": 1,
    "course": 4,
    "productivity": 1,
    "brain": 30,
    "answers": 1,
    "quotient": 1,
    "researcher": 1,
    "humans": 4,
    "step": 3,
    "system": 12,
    "decks": 1,
    "feeling": 1,
    "bus": 1,
    "layer": 1,
    "levels": 2,
    "constraint": 1,
    "glasses": 2,
    "springs": 1,
    "computer": 5,
    "interface": 4,
    "sample": 1,
    "gamers": 1,
    "game": 4,
    "experience": 1,
    "loop": 2,
    "perception": 1,
    "gaming": 1,
    "t": 1,
    "h": 1,
    "o": 1,
    "ratio": 1,
    "communication": 4,
    "7th": 1,
    "replaying": 1,
    "metal": 1,
    "mine": 3,
    "4th": 1,
    "third": 1,
    "mention": 1,
    "resolution": 1,
    "day": 3,
    "kind": 18,
    "dealership": 1,
    "elephants": 1,
    "work": 1,
    "properties": 1,
    "materials": 1,
    "back": 2,
    "eyes": 3,
    "password": 1,
    "device": 4,
    "side": 3,
    "assistant": 1,
    "experiences": 3,
    "data": 2,
    "kinds": 4,
    "applications": 1,
    "strategy": 1,
    "reason": 2,
    "path": 2,
    "table": 1,
    "episode": 3,
    "podcast": 1,
    "1a": 1,
    "heart": 1,
    "call": 1,
    "sleep": 1,
    "app": 2,
    "lawn": 1,
    "right": 1,
    "fabric": 3,
    "realm": 1,
    "boss": 1,
    "choice": 1,
    "decision": 1,
    "control": 1,
    "way": 17,
    "episodes": 1,
    "topic": 1,
    "x": 1,
    "responsibilities": 1,
    "interfaces": 1,
    "level": 7,
    "today": 2,
    "update": 1,
    "progress": 4,
    "solo": 1,
    "title": 1,
    "interviews": 1,
    "discussion": 2,
    "meditation": 2,
    "addition": 1,
    "exercise": 1,
    "programs": 1,
    "treatment": 1,
    "protection": 1,
    "lady": 1,
    "understanding": 4,
    "closing": 1,
    "medication": 1,
    "nation": 1,
    "bubble": 1,
    "dimension": 2,
    "psychedelics": 1,
    "justice": 1,
    "category": 2,
    "alleviation": 2,
    "degree": 1,
    "sources": 1,
    "lake": 1,
    "piece": 2,
    "headset": 2,
    "solution": 1,
    "access": 4,
    "biology": 1,
    "electric": 1,
    "nature": 3,
    "competition": 1,
    "biological": 4,
    "v": 1,
    "population": 1,
    "theater": 1,
    "replication": 1,
    "decrease": 1,
    "bath": 1,
    "contact": 1,
    "football": 1,
    "periods": 1,
    "month": 1,
    "years": 1,
    "challenge": 2,
    "apostle": 1,
    "quantity": 1,
    "beings": 2,
    "times": 2,
    "team": 7,
    "flag": 1,
    "bandwidth": 1,
    "teacher": 1,
    "songs": 1,
    "teams": 1,
    "gold": 1,
    "others": 1,
    "competitors": 1,
    "boundaries": 1,
    "video": 2,
    "vision": 4,
    "teachers": 1,
    "efforts": 1,
    "humankind": 1,
    "start": 6,
    "viscosity": 1,
    "order": 2,
    "visuals": 1,
    "motion": 4,
    "enrichment": 1,
    "bait": 1,
    "parts": 1,
    "perspective": 2,
    "converter": 1,
    "1st": 1,
    "car": 1,
    "mechanic": 1,
    "voice": 1,
    "microphone": 1,
    "charge": 1,
    "research": 1,
    "algorithms": 1,
    "knowledge": 2,
    "submodel": 1,
    "devices": 1,
    "spectrum": 1,
    "deductions": 1,
    "objects": 1,
    "vesicle": 1,
    "fathers": 1,
    "stuff": 3,
    "address": 1,
    "see": 7,
    "basic": 6,
    "neurosurgery": 1,
    "surgery": 1,
    "lyrics": 1,
    "be": 2,
    "presence": 1,
    "version": 1,
    "sea": 1,
    "decade": 1,
    "member": 1,
    "butt": 1,
    "alma": 1,
    "signals": 2,
    "building": 1,
    "phone": 1,
    "movie": 2,
    "key": 1,
    "property": 2,
    "matter": 1,
    "rigor": 1,
    "try": 4,
    "source": 4,
    "discourse": 1,
    "diet": 1,
    "sense": 2,
    "information": 3,
    "fan": 4,
    "longtime": 1,
    "spectator": 1,
    "working": 3,
    "place": 1,
    "air": 1,
    "lots": 1,
    "school": 1,
    "labor": 1,
    "design": 1,
    "front": 1,
    "camera": 1,
    "visitor": 1,
    "while": 1,
    "demo": 1,
    "person": 2,
    "random": 1,
    "thing": 5,
    "recent": 1,
    "outline": 1,
    "ideas": 3,
    "top": 2,
    "artist": 1,
    "acts": 1,
    "hacks": 1,
    "games": 1,
    "barriers": 1,
    "history": 1,
    "shore": 1,
    "talks": 1,
    "buddies": 1,
    "application": 1,
    "grain": 1,
    "sauce": 1,
    "bass": 1,
    "mouth": 2,
    "concepts": 1,
    "spot": 1,
    "expiration": 1,
    "diseases": 1,
    "mysteries": 1,
    "directions": 1,
    "interact": 1,
    "could": 6,
    "regaining": 1,
    "simulating": 1,
    "connected": 2,
    "will": 15,
    "continue": 1,
    "think": 1,
    "help": 5,
    "understand": 7,
    "intro": 1,
    "would": 6,
    "say": 6,
    "feel": 4,
    "signed": 1,
    "sounding": 1,
    "take": 6, 
    "'ll": 9,
    "discuss": 2,
    "make": 5,
    "required": 1,
    "should": 1,
    "note": 1,
    "tried": 1,
    "stick": 1,
    "seems": 1,
    "learning": 1,
    "can": 28,
    "learn": 4,
    "controlled": 3,
    "discover": 1,
    "lay": 1,
    "explore": 1,
    "delete": 1,
    "alter": 1,
    "mean": 4,
    "ca": 2,
    "mentioned": 3,
    "affect": 1,
    "operating": 1,
    "getting": 1,
    "move": 2,
    "camp": 1,
    "demand": 1,
    "sink": 1,
    "swim": 1,
    "based": 2,
    "may": 5,
    "arise": 2,
    "imagine": 4,
    "want": 4,
    "put": 2,
    "come": 7,
    "look": 8,
    "doing": 7,
    "operate": 1,
    "heads": 1,
    "might": 9,
    "happen": 2,
    "forms": 1,
    "saving": 2,
    "complete": 2,
    "check": 1,
    "describes": 1,
    "turn": 1,
    "connecting": 1,
    "figure": 1,
    "advise": 1,
    "used": 2,
    "pick": 1,
    "give": 1,
    "translated": 1,
    "add": 1,
    "need": 2,
    "go": 3,
    "pay": 1,
    "conjures": 1,
    "thought": 4,
    "nearing": 1,
    "experienced": 1,
    "making": 2,
    "focused": 2,
    "challenging": 1,
    "starting": 1,
    "opposed": 3,
    "listen": 2,
    "aim": 1,
    "accelerate": 1,
    "write": 5,
    "read": 1,
    "aiding": 1,
    "aid": 1,
    "works": 4,
    "derive": 1,
    "rid": 1,
    "syrup": 1,
    "architectured": 1,
    "made": 3,
    "faces": 1,
    "communicate": 5,
    "trying": 2,
    "forcing": 1,
    "believe": 1,
    "enrich": 1,
    "linking": 1,
    "become": 2,
    "drove": 1,
    "push": 1,
    "stimulate": 2,
    "gave": 1,
    "lead": 3,
    "going": 4,
    "convert": 1,
    "instruct": 1,
    "build": 2,
    "freezing": 1,
    "entangle": 1,
    "augmented": 1,
    "expanding": 1,
    "done": 1,
    "moving": 1,
    "gaining": 1,
    "infrared": 1,
    "activated": 1,
    "minimize": 2,
    "injuring": 1,
    "communicating": 1,
    "dreams": 1,
    "saying": 1,
    "asked": 1,
    "answered": 1,
    "found": 2,
    "let": 1,
    "discussing": 1,
    "talk": 1,
    "measure": 1,
    "merging": 1,
    "answer": 1,
    "alleviate": 1,
    "allows": 1,
    "rising": 2,
    "got": 2,
    "watching": 1,
    "tackling": 1,
    "'d": 1,
    "podcasting": 1,
    "know": 4,
    "catch": 1,
    "attend": 1,
    "referring": 1,
    "bring": 1,
    "reading": 1,
    "seen": 1,
    "consumed": 1,
    "generated": 1,
    "speaking": 1,
    "uncovered": 1,
    "focus": 1,
    "sending": 2,
    "magical": 1,
    "physical": 5,
    "first": 7,
    "able": 22,
    "visual": 4,
    "other": 7,
    "21st": 1,
    "20th": 1,
    "long": 11,
    "many": 5,
    "scientific": 5,
    "possible": 8,
    "own": 4,
    "little": 3,
    "subconscious": 1,
    "philosopher": 1,
    "logical": 4,
    "inner": 1,
    "realistic": 1,
    "much": 4,
    "early": 1,
    "general": 7,
    "next": 5,
    "adaptable": 1,
    "different": 7,
    "such": 1,
    "multiple": 2,
    "hot": 1,
    "fast": 1,
    "closed": 2,
    "immersive": 5,
    "computational": 3,
    "virtual": 3,
    "live": 1,
    "previous": 1,
    "second": 6,
    "memorable": 1,
    "more": 5,
    "white": 1,
    "resilient": 2,
    "same": 3,
    "clear": 3,
    "official": 1,
    "electrical": 3,
    "personal": 3,
    "executive": 1,
    "prior": 1,
    "real": 2,
    "cold": 1,
    "famous": 1,
    "particular": 1,
    "philosophical": 1,
    "regular": 2,
    "social": 2,
    "educational": 1,
    "internal": 1,
    "neurological": 2,
    "technological": 1,
    "direct": 2,
    "structured": 1,
    "conceptual": 2,
    "multi": 1,
    "-": 1,
    "dimensional": 2,
    "operational": 1,
    "consensual": 1,
    "few": 1,
    "telepathic": 1,
    "stable": 1,
    "shallow": 1,
    "monotone": 1,
    "artificial": 6,
    "new": 1,
    "superhuman": 1,
    "robotic": 2,
    "narrow": 3,
    "assertive": 1,
    "spontaneous": 1,
    "final": 1,
    "psychological": 2,
    "alternate": 1,
    "unique": 1,
    "emergent": 1,
    "political": 2,
    "big": 3,
    "very": 1,
    "fortunate": 1,
    "most": 2,
    "open": 2,
    "technical": 1,
    "chewable": 1,
    "huge": 1,
    "nearest": 1,
    "passion": 1,
    "inspiration": 1,
    "profit": 1,
    "friend": 1,
    "fun": 1,
    "thank": 1,
    "original": 2,
    "intelligent": 2,
    "sure": 1,
    "important": 1,
    "strong": 1,
    "super": 1,
    "smarter": 2,
    "efficient": 1,
    "mess": 1,
    "hell": 1,
    "paranoid": 1,
    "distraction": 1,
    "lose": 1,
    "destroys": 1,
    "critical": 1,
    "traumatic": 1,
    "overwhelmed": 1,
    "damn": 1,
    "scary": 1,
    "%": 2,
    "money": 3,
    "stock": 1,
    "market": 1,
    "cash": 1,
    "state": 1,
    "passcode": 1,
    "immortality": 1,
    "searches": 1,
    "contents": 2,
    "content": 2,
    "form": 1,
    "robots": 1,
    "planets": 2,
    "exoplanet": 1,
    "idea": 6,
    "cognition": 1,
    "language": 1,
    "internet": 1,
    "maps": 1,
    "reasons": 1,
    "power": 1,
    "runs": 1,
    "vodka": 2,
    "book": 1,
    "paper": 6,
    "map": 1,
    "scientists": 1,
    "limits": 1,
    "dude": 1,
    "capability": 1,
    "division": 1,
    "space": 4,
    "wedding": 1,
    "company": 1,
    "methodology": 1,
    "motivation": 1,
    "food": 1,
    "compounds": 1,
    "hoses": 1,
    "lobster": 1,
    "resources": 2,
    "capacities": 1,
    "point": 5,
    "combination": 1,
    "boiling": 1,
    "water": 1,
    "restaurant": 1,
    "bottom": 1,
    "languages": 1,
    "icon": 1,
    "program": 1,
    "tree": 1,
    "bed": 1,
    "bullet": 3,
    "list": 2,
    "thousands": 1,
    "documents": 2,
    "hyaki": 1,
    "jack": 1,
    "infection": 2,
    "discount": 1,
    "appointment": 1,
    "night": 1,
    "conversational": 1,
    "babbu": 1,
    "sponsorship": 1,
    "weather": 2,
    "concept": 2,
    "sides": 1,
    "search": 1,
    "end": 1,
    "fog": 1,
    "star": 1,
    "masterclass": 1,
    "rockets": 1,
    "cinema": 1,
    "apartment": 1,
    "year": 1,
    "pass": 1,
    "watch": 1,
    "courses": 1,
    "exploration": 1,
    "grass": 1,
    "blocks": 1,
    "children": 1,
    "addiction": 1,
    "biscuit": 1,
    "categorization": 1,
    "query": 1,
    "use": 1,
    "words": 1,
    "notches": 1,
    "implementation": 1,
    "hierarchy": 1,
    "training": 1,
    "survival": 1,
    "capacity": 2,
    "sheet": 1,
    "hours": 1,
    "backtracking": 1,
    "differences": 1,
    "writing": 1,
    "ocd": 1,
    "class": 2,
    "round": 1,
    "rating": 1,
    "introspect": 1,
    "questions": 1,
    "hand": 1,
    "summary": 1,
    "sponsor": 1,
    "act": 1,
    "communities": 1,
    "custom": 1,
    "machinery": 1,
    "medium": 1,
    "action": 1,
    "baby": 1,
    "origins": 1,
    "changes": 1,
    "scots": 1,
    "debate": 1,
    "points": 1,
    "spread": 1,
    "papers": 2,
    "recommender": 1,
    "gbt": 1,
    "remind": 1,
    "tour": 1,
    "type": 2,
    "relationship": 1,
    "subway": 1,
    "notes": 1,
    "wear": 1,
    "organizing": 1,
    "statements": 1,
    "mystery": 1,
    "functionality": 1,
    "impossibility": 1,
    "merge": 1,
    "ride": 1,
    "wave": 2,
    "mines": 1,
    "openai": 1,
    "roaches": 1,
    "line": 1,
    "set": 2,
    "tasks": 1,
    "leg": 1,
    "manufacture": 1,
    "competitor": 1,
    "comes": 1,
    "headed": 1,
    "sign": 1,
    "transfer": 2,
    "discussed": 1,
    "talkin": 1,
    "says": 1,
    "interpret": 1,
    "feels": 1,
    "skip": 1,
    "explain": 1,
    "starts": 1,
    "organize": 2,
    "pushing": 1,
    "find": 3,
    "draw": 1,
    "install": 1,
    "achieve": 1,
    "ate": 1,
    "store": 1,
    "relation": 1,
    "dropped": 1,
    "predict": 1,
    "creep": 1,
    "remember": 2,
    "sponsored": 1,
    "started": 1,
    "visiting": 1,
    "graduate": 1,
    "roll": 1,
    "provided": 1,
    "reload": 1,
    "arrive": 2,
    "reach": 1,
    "called": 2,
    "blow": 1,
    "get": 3,
    "switched": 1,
    "knighted": 1,
    "stream": 1,
    "allowed": 1,
    "execute": 1,
    "run": 1,
    "expands": 1,
    "means": 1,
    "looking": 1,
    "seem": 1,
    "post": 1,
    "ensure": 1,
    "expand": 1,
    "focusing": 1,
    "thinking": 4,
    "sitting": 1,
    "needing": 1,
    "coming": 1,
    "showed": 1,
    "backtrack": 1,
    "show": 1,
    "proving": 1,
    "require": 1,
    "follow": 1,
    "stop": 1,
    "talked": 1,
    "titled": 1,
    "following": 1,
    "aspect": 1,
    "ask": 1,
    "sublimated": 1,
    "represent": 1,
    "sparse": 1,
    "took": 1,
    "rooted": 1,
    "having": 1,
    "keep": 1,
    "increases": 1,
    "visualize": 1,
    "guy": 1,
    "associated": 1,
    "allow": 1,
    "ran": 1,
    "bake": 1,
    "walking": 1,
    "generalize": 1,
    "distributed": 1,
    "manufacturing": 1,
    "paperclip": 1,
    "mental": 2,
    "digital": 3,
    "habitable": 1,
    "solar": 2,
    "giant": 1,
    "natural": 2,
    "german": 1,
    "russian": 2,
    "economic": 1,
    "mathematical": 1,
    "obvious": 1,
    "deep": 3,
    "higher": 1,
    "dentist": 1,
    "late": 1,
    "livable": 1,
    "extraterrestrial": 1,
    "central": 1,
    "entire": 1,
    "half": 1,
    "heavy": 1,
    "shortest": 1,
    "worth": 1,
    "dry": 1,
    "paralyzed": 1,
    "treacherous": 1,
    "practical": 1,
    "single": 1,
    "greater": 1,
    "english": 1,
    "mainstream": 1,
    "incremental": 1,
    "quick": 1,
    "mechanical": 1,
    "fundamental": 1,
    "specific": 1,
    "mobile": 1,
    "usual": 1,
    "capable": 1,
    "literary": 1,
    "complex": 1,
    "prosthetic": 1,
    "indirect": 1
}