{
    "love": 6,
    "play": 1,
    "like": 1,
    "create": 1,
    "creating": 1,
    "playing": 1,
    "hope": 1,
    "good": 10,
    "free": 3,
    "beautiful": 1,
    "easy": 1,
    "favorite": 2,
    "special": 1,
    "true": 1,
    "easier": 2,
    "best": 3,
    "great": 3,
    "better": 2,
    "number": 1,
    "numbers": 1,
    "pain": 1,
    "anxiety": 1,
    "problem": 5,
    "crazy": 1,
    "difficult": 2,
    "bad": 1,
    "hard": 1,
    "example": 3,
    "time": 14,
    "videos": 2,
    "people": 15,
    "color": 1,
    "function": 1,
    "connect": 1,
    "mind": 1,
    "lock": 1,
    "term": 1,
    "lot": 12,
    "things": 10,
    "thoughts": 1,
    "structure": 1,
    "ways": 2,
    "world": 6,
    "memory": 1,
    "conversation": 7,
    "life": 8,
    "scientist": 1,
    "bit": 2,
    "part": 2,
    "view": 1,
    "days": 1,
    "development": 2,
    "companies": 1,
    "link": 1,
    "course": 1,
    "productivity": 1,
    "feeling": 1,
    "computer": 1,
    "experience": 1,
    "loop": 1,
    "day": 5,
    "kind": 4,
    "work": 1,
    "back": 1,
    "device": 14,
    "side": 3,
    "kinds": 1,
    "reason": 2,
    "episode": 1,
    "podcast": 7,
    "heart": 1,
    "call": 1,
    "sleep": 5,
    "app": 3,
    "fabric": 1,
    "choice": 2,
    "control": 1,
    "way": 9,
    "x": 1,
    "level": 2,
    "today": 3,
    "update": 1,
    "discussion": 1,
    "lady": 1,
    "degree": 1,
    "piece": 1,
    "nature": 2,
    "v": 1,
    "month": 1,
    "years": 2,
    "times": 3,
    "team": 1,
    "video": 3,
    "vision": 1,
    "order": 1,
    "car": 2,
    "voice": 1,
    "devices": 1,
    "stuff": 6,
    "sea": 1,
    "building": 3,
    "phone": 1,
    "matter": 2,
    "diet": 2,
    "information": 2,
    "fan": 1,
    "place": 3,
    "air": 1,
    "school": 4,
    "while": 1,
    "person": 1,
    "thing": 10,
    "ideas": 1,
    "artist": 1,
    "sauce": 1,
    "mouth": 1,
    "spot": 4,
    "could": 2,
    "see": 9,
    "connected": 1,
    "will": 6,
    "continue": 1,
    "think": 21,
    "help": 1,
    "would": 5,
    "say": 5,
    "feel": 1,
    "take": 4,
    "'ll": 3,
    "discuss": 2,
    "make": 6,
    "should": 5,
    "tried": 4,
    "try": 5,
    "seems": 1,
    "can": 18,
    "learn": 1,
    "discover": 1,
    "mean": 3,
    "ca": 1,
    "getting": 1,
    "move": 1,
    "based": 1,
    "working": 4,
    "may": 3,
    "engineering": 1,
    "imagine": 1,
    "want": 12,
    "put": 3,
    "look": 3,
    "doing": 1,
    "might": 7,
    "happen": 1,
    "check": 1,
    "turn": 4,
    "connecting": 1,
    "used": 6,
    "pick": 1,
    "give": 4,
    "need": 6,
    "go": 1,
    "starting": 1,
    "listen": 1,
    "write": 2,
    "read": 2,
    "made": 3,
    "believe": 1,
    "become": 1,
    "gave": 1,
    "start": 7,
    "going": 8,
    "build": 2,
    "done": 1,
    "communicating": 1,
    "saying": 2,
    "found": 1,
    "let": 4,
    "discussing": 1,
    "talk": 1,
    "got": 4,
    "watching": 1,
    "know": 24,
    "bring": 1,
    "magical": 2,
    "first": 2,
    "able": 5,
    "other": 7,
    "human": 1,
    "long": 4,
    "many": 8,
    "scientific": 1,
    "possible": 2,
    "own": 2,
    "little": 3,
    "much": 2,
    "next": 2,
    "different": 1,
    "multiple": 1,
    "hot": 1,
    "fast": 1,
    "second": 3,
    "more": 7,
    "white": 1,
    "biological": 2,
    "same": 2,
    "clear": 3,
    "electrical": 1,
    "real": 1,
    "future": 1,
    "cold": 2,
    "recent": 1,
    "direct": 1,
    "few": 2,
    "new": 4,
    "psychological": 1,
    "basic": 2,
    "political": 1,
    "big": 4,
    "very": 1,
    "most": 4,
    "open": 1,
    "technical": 1,
    "huge": 2,
    "passion": 1,
    "friend": 2,
    "thank": 1,
    "intelligent": 1,
    "sure": 4,
    "important": 1,
    "efficient": 1,
    "lose": 1,
    "%": 4,
    "money": 2,
    "form": 1,
    "language": 1,
    "power": 1,
    "book": 2,
    "map": 1,
    "scientists": 1,
    "wedding": 1,
    "company": 3,
    "food": 1,
    "point": 3,
    "combination": 1,
    "water": 1,
    "bed": 2,
    "discount": 1,
    "night": 3,
    "weather": 2,
    "search": 1,
    "end": 2,
    "apartment": 1,
    "year": 2,
    "exploration": 1,
    "blocks": 2,
    "use": 3,
    "words": 1,
    "hierarchy": 1,
    "questions": 1,
    "baby": 1,
    "points": 2,
    "tour": 1,
    "type": 2,
    "notes": 1,
    "line": 3,
    "comes": 1,
    "says": 1,
    "feels": 1,
    "starts": 1,
    "pushing": 1,
    "find": 3,
    "remember": 1,
    "sponsored": 4,
    "started": 2,
    "get": 5,
    "means": 3,
    "seem": 1,
    "show": 1,
    "follow": 1,
    "talked": 3,
    "ask": 2,
    "took": 4,
    "writing": 1,
    "keep": 1,
    "walking": 1,
    "natural": 1,
    "worth": 1,
    "single": 1,
    "quick": 1,
    "specific": 1,
    "convince": 1,
    "joke": 1,
    "gratitude": 1,
    "share": 1,
    "successful": 1,
    "okay": 1,
    "grateful": 1,
    "popular": 2,
    "easiest": 1,
    "alarm": 1,
    "problems": 1,
    "obsessed": 1,
    "lost": 1,
    "hurt": 1,
    "screaming": 1,
    "missing": 1,
    "abuses": 1,
    "frustrating": 1,
    "lowest": 1,
    "weird": 2,
    "feedback": 1,
    "targets": 1,
    "concern": 1,
    "salt": 1,
    "server": 1,
    "production": 1,
    "issue": 1,
    "weekend": 5,
    "meeting": 1,
    "commands": 1,
    "connection": 3,
    "home": 2,
    "volume": 2,
    "user": 1,
    "tv": 1,
    "week": 5,
    "promotion": 1,
    "morning": 4,
    "guys": 2,
    "terms": 2,
    "word": 5,
    "screen": 2,
    "one": 4,
    "setup": 1,
    "email": 1,
    "product": 5,
    "beginning": 2,
    "stretch": 1,
    "wishes": 1,
    "signal": 1,
    "trim": 1,
    "months": 1,
    "versions": 1,
    "clarity": 1,
    "meetings": 1,
    "answer": 1,
    "associates": 1,
    "principles": 1,
    "mission": 1,
    "phones": 1,
    "lesson": 2,
    "leadership": 1,
    "details": 1,
    "engineers": 2,
    "item": 1,
    "leader": 1,
    "groups": 1,
    "features": 4,
    "dictator": 1,
    "milk": 1,
    "retention": 1,
    "rates": 1,
    "bump": 1,
    "cost": 1,
    "model": 1,
    "service": 1,
    "customers": 1,
    "creators": 2,
    "mechanism": 1,
    "interaction": 1,
    "injection": 1,
    "works": 1,
    "eye": 1,
    "issues": 1,
    "scale": 1,
    "text": 1,
    "review": 1,
    "pilot": 1,
    "news": 1,
    "d2l": 1,
    "metric": 1,
    "manager": 1,
    "studio": 1,
    "infrastructures": 1,
    "fact": 3,
    "name": 1,
    "report": 1,
    "feature": 1,
    "location": 1,
    "trees": 1,
    "users": 1,
    "posting": 1,
    "button": 1,
    "wake": 4,
    "navigate": 1,
    "fluoride": 1,
    "documentation": 1,
    "database": 1,
    "detection": 1,
    "divide": 1,
    "fill": 1,
    "song": 2,
    "parent": 1,
    "parents": 3,
    "neighborhood": 1,
    "wonder": 5,
    "thought": 1,
    "project": 1,
    "adult": 1,
    "doll": 1,
    "explanation": 1,
    "examples": 2,
    "station": 1,
    "servicing": 1,
    "requests": 1,
    "store": 3,
    "items": 2,
    "sound": 1,
    "download": 1,
    "updates": 1,
    "ranges": 1,
    "customer": 1,
    "outlet": 1,
    "weekly": 1,
    "price": 2,
    "lyrics": 1,
    "running": 7,
    "trained": 1,
    "recorded": 1,
    "tell": 3,
    "establish": 1,
    "went": 1,
    "fetch": 1,
    "trigger": 1,
    "paired": 1,
    "adjust": 1,
    "remind": 1,
    "checking": 2,
    "repeat": 1,
    "chopping": 1,
    "stay": 1,
    "set": 1,
    "channel": 1,
    "send": 4,
    "gon": 1,
    "lie": 1,
    "keeping": 1,
    "kept": 2,
    "looks": 6,
    "receive": 1,
    "beat": 2,
    "hear": 1,
    "goes": 2,
    "talks": 1,
    "talking": 2,
    "listed": 1,
    "speak": 1,
    "heard": 1,
    "exist": 1,
    "wants": 1,
    "using": 2,
    "sounds": 1,
    "investigate": 1,
    "submit": 1,
    "runs": 1,
    "reviews": 1,
    "said": 5,
    "reduce": 1,
    "increase": 1,
    "came": 2,
    "hired": 1,
    "felt": 1,
    "upload": 1,
    "released": 1,
    "change": 2,
    "dress": 1,
    "jump": 3,
    "clicking": 2,
    "covered": 1,
    "waited": 1,
    "booting": 1,
    "deal": 1,
    "happened": 1,
    "access": 1,
    "sent": 1,
    "rolling": 2,
    "supposed": 1,
    "had": 1,
    "wait": 1,
    "wondered": 1,
    "covering": 1,
    "exhibit": 1,
    "makes": 3,
    "hang": 1,
    "select": 1,
    "adding": 1,
    "gets": 1,
    "restart": 1,
    "causes": 1,
    "presenting": 1,
    "accessible": 1,
    "right": 6,
    "aware": 1,
    "known": 1,
    "small": 2,
    "overarching": 1,
    "clueless": 1,
    "cortical": 1,
    "developmental": 1,
    "responsible": 1,
    "separate": 1,
    "available": 2,
    "accurate": 1,
    "normal": 1,
    "old": 2,
    "current": 2,
    "forgiveness": 1,
    "hopes": 1,
    "care": 1,
    "relax": 1,
    "forgive": 1,
    "enjoy": 2,
    "fine": 3,
    "worthwhile": 1,
    "interested": 1,
    "fight": 1,
    "worse": 1,
    "sad": 1,
    "dumbest": 1,
    "click": 1,
    "purchase": 1,
    "headline": 1,
    "tuition": 1,
    "comment": 1,
    "page": 1,
    "references": 1,
    "reporters": 1,
    "articles": 1,
    "laundry": 1,
    "poster": 1,
    "bunch": 2,
    "rogers": 1,
    "science": 1,
    "heck": 1,
    "field": 1,
    "ceos": 1,
    "phds": 1,
    "blog": 1,
    "post": 1,
    "reporter": 1,
    "website": 1,
    "transcript": 1,
    "transcription": 1,
    "crater": 1,
    "dream": 1,
    "blank": 1,
    "zoom": 1,
    "audio": 1,
    "needs": 3,
    "thinks": 1,
    "forget": 1,
    "brought": 1,
    "reference": 1,
    "listing": 1,
    "falsifying": 1,
    "wrote": 1,
    "wanted": 3,
    "wish": 1,
    "revisit": 1,
    "pull": 1,
    "seemed": 1,
    "broadcast": 1,
    "searching": 1,
    "describe": 1,
    "spotify": 1,
    "converting": 1,
    "empower": 1,
    "weigh": 1,
    "experimenting": 1,
    "taking": 1,
    "powerful": 1,
    "mixed": 1,
    "martial": 1,
    "clickbait": 1,
    "complete": 1,
    "rigorous": 1,
    "championship": 1,
    "championships": 1,
    "excitement": 1,
    "champion": 1,
    "winning": 1,
    "freestyle": 1,
    "excellent": 1,
    "anger": 1,
    "mistakes": 1,
    "loss": 1,
    "murdered": 2,
    "crying": 1,
    "alone": 1,
    "troubled": 1,
    "house": 2,
    "office": 1,
    "workout": 1,
    "room": 1,
    "lighting": 1,
    "director": 1,
    "track": 1,
    "role": 1,
    "family": 2,
    "break": 1,
    "brothers": 1,
    "business": 8,
    "coaching": 3,
    "staff": 1,
    "women": 1,
    "performance": 2,
    "file": 1,
    "titles": 1,
    "silver": 2,
    "medalist": 2,
    "boy": 1,
    "makeup": 1,
    "actor": 1,
    "purpose": 1,
    "minutes": 1,
    "dad": 1,
    "sister": 1,
    "sophomore": 1,
    "sibling": 1,
    "choices": 1,
    "daddy": 1,
    "neighbor": 1,
    "kid": 1,
    "obligations": 1,
    "21st": 1,
    "guy": 2,
    "wife": 1,
    "coaches": 1,
    "seconds": 1,
    "self": 1,
    "situation": 1,
    "spent": 1,
    "gives": 1,
    "living": 1,
    "pause": 1,
    "breaking": 1,
    "arrest": 1,
    "keeps": 1,
    "analyzed": 1,
    "worked": 1,
    "act": 2,
    "told": 1,
    "realize": 1,
    "ai": 1,
    "walked": 1,
    "die": 1,
    "drive": 1,
    "saw": 1,
    "gone": 1,
    "haunted": 1,
    "naught": 1,
    "local": 1,
    "olympic": 2,
    "older": 1,
    "high": 1,
    "handle": 1,
    "whole": 1,
    "sudden": 1,
    "greatest": 1,
    "well": 1,
    "brave": 1,
    "safety": 1,
    "success": 1,
    "brighten": 1,
    "benefit": 1,
    "cool": 1,
    "honest": 1,
    "friendly": 1,
    "sweet": 2,
    "careful": 1,
    "calm": 1,
    "fascinating": 1,
    "brilliant": 1,
    "comfortable": 1,
    "convinced": 1,
    "cheat": 1,
    "regret": 1,
    "civilization": 1,
    "discovery": 1,
    "afterlife": 1,
    "variety": 1,
    "habitable": 1,
    "viruses": 2,
    "insight": 1,
    "dryness": 1,
    "universe": 1,
    "techniques": 1,
    "-": 1,
    "ray": 1,
    "crystallography": 1,
    "breakthrough": 1,
    "caps": 1,
    "sex": 1,
    "moment": 1,
    "cereal": 2,
    "mix": 1,
    "carnivore": 1,
    "carb": 1,
    "cherries": 1,
    "apple": 1,
    "evolution": 1,
    "advancement": 1,
    "r": 1,
    "complices": 1,
    "soda": 1,
    "owners": 1,
    "card": 1,
    "tails": 1,
    "bureaucracy": 1,
    "financials": 1,
    "mom": 1,
    "netsuite": 1,
    "browser": 6,
    "counts": 1,
    "blanks": 1,
    "spreadsheets": 1,
    "protein": 7,
    "plants": 1,
    "units": 2,
    "dummy": 1,
    "past": 1,
    "flavor": 2,
    "grams": 2,
    "carbs": 1,
    "accomplishment": 1,
    "snack": 1,
    "meal": 1,
    "sugar": 1,
    "schedule": 1,
    "excellence": 1,
    "hundreds": 1,
    "millions": 1,
    "com": 1,
    "lex": 1,
    "reading": 1,
    "engine": 1,
    "sensors": 1,
    "\\u00b0": 1,
    "description": 2,
    "cars": 1,
    "shipping": 1,
    "afternoon": 1,
    "temperature": 2,
    "sleeping": 1,
    "letters": 1,
    "rate": 1,
    "variability": 1,
    "degrees": 2,
    "arthro": 1,
    "combinations": 1,
    "savings": 1,
    "listeners": 1,
    "platforms": 1,
    "window": 1,
    "privacy": 4,
    "scene": 1,
    "options": 1,
    "extension": 1,
    "speed": 1,
    "ads": 1,
    "fridman": 1,
    "domain": 1,
    "teens": 1,
    "culture": 1,
    "element": 1,
    "proteins": 1,
    "software": 1,
    "magic": 1,
    "spoon": 1,
    "biologist": 1,
    "agenda": 1,
    "response": 1,
    "load": 1,
    "serial": 1,
    "cell": 2,
    "foam": 1,
    "mattress": 1,
    "amino": 1,
    "acid": 1,
    "residues": 1,
    "unit": 1,
    "result": 1,
    "meet": 1,
    "eating": 1,
    "placing": 1,
    "managed": 1,
    "related": 1,
    "shows": 1,
    "buy": 2,
    "consider": 1,
    "upgrading": 1,
    "studying": 1,
    "consists": 1,
    "realizing": 1,
    "celebrate": 1,
    "ought": 1,
    "flourish": 1,
    "functioning": 1,
    "fall": 1,
    "packed": 1,
    "bike": 1,
    "heat": 1,
    "seeking": 1,
    "stuck": 1,
    "includes": 1,
    "import": 1,
    "bookmarks": 1,
    "preserving": 1,
    "cast": 1,
    "must": 1,
    "asking": 1,
    "including": 1,
    "domains": 1,
    "format": 1,
    "performing": 1,
    "studies": 1,
    "links": 1,
    "browsing": 1,
    "choose": 1,
    "realized": 1,
    "carries": 1,
    "became": 1,
    "structural": 1,
    "pure": 1,
    "extra": 1,
    "main": 1,
    "benji": 1,
    "circular": 1,
    "experimental": 1,
    "average": 1,
    "several": 1,
    "essential": 1,
    "least": 1,
    "pro": 1,
    "restful": 1,
    "private": 1,
    "advanced": 1,
    "various": 1,
    "cleanest": 1,
    "functional": 1,
    "impactful": 1,
    "sweep": 1,
    "healthy": 1,
    "complicated": 1,
    "reset": 1,
    "distant": 1
}